[gd_scene load_steps=6 format=2]

[ext_resource path="res://World/World.gd" type="Script" id=1]
[ext_resource path="res://World/Map.tscn" type="PackedScene" id=7]
[ext_resource path="res://Network/Server/NetworkManager.gd" type="Script" id=8]
[ext_resource path="res://Network/Server/NetHandler.gd" type="Script" id=9]

[sub_resource type="GDScript" id=1]
script/source = "extends Node


func _input(event):
	if Input.is_key_pressed(KEY_F11):
		OS.set_window_maximized(true)
"

[node name="Server" type="Node"]
script = SubResource( 1 )

[node name="Networking" type="Node" parent="."]

[node name="NetworkManager" type="Node" parent="Networking"]
script = ExtResource( 8 )

[node name="NetHandler" type="Node" parent="Networking/NetworkManager"]
script = ExtResource( 9 )

[node name="World" parent="." instance=ExtResource( 7 )]
script = ExtResource( 1 )
_network_manager = NodePath("../Networking/NetworkManager")
_connected_players = NodePath("Players")

[node name="Players" type="Node" parent="World"]

[node name="DebugCamera" type="Camera" parent="World"]
transform = Transform( 0.696029, -0.20574, 0.687906, -0.00981594, 0.955252, 0.29563, -0.717946, -0.21252, 0.662864, 37.329, 15, 10.2753 )
fov = 70.3
far = 539.5
