[gd_scene load_steps=6 format=2]

[ext_resource path="res://Scenes/Main/Player/WeaponSystem/Object/Weapons/Bazooka/Bazooka.gd" type="Script" id=1]


[sub_resource type="SpatialMaterial" id=1]
albedo_color = Color( 0.443137, 0.666667, 0.203922, 1 )

[sub_resource type="CubeMesh" id=2]
material = SubResource( 1 )
size = Vector3( 0.5, 0.5, 0.5 )

[sub_resource type="Animation" id=3]
length = 1.4
tracks/0/type = "value"
tracks/0/path = NodePath("..:visible")
tracks/0/interp = 1
tracks/0/loop_wrap = true
tracks/0/imported = false
tracks/0/enabled = true
tracks/0/keys = {
"times": PoolRealArray( 0 ),
"transitions": PoolRealArray( 1 ),
"update": 1,
"values": [ true ]
}

[sub_resource type="Animation" id=4]
length = 0.5
tracks/0/type = "value"
tracks/0/path = NodePath("..:visible")
tracks/0/interp = 1
tracks/0/loop_wrap = true
tracks/0/imported = false
tracks/0/enabled = true
tracks/0/keys = {
"times": PoolRealArray( 0 ),
"transitions": PoolRealArray( 1 ),
"update": 1,
"values": [ false ]
}

[node name="Bazooka" type="Spatial"]
script = ExtResource( 1 )

[node name="ShootOrigin" type="Spatial" parent="."]
transform = Transform( -1, 0, 0, 0, 1, 0, 0, 0, -1, 1.5, 0.7, 0 )

[node name="mesh" type="Spatial" parent="."]

[node name="3DModel" type="MeshInstance" parent="mesh"]
transform = Transform( 1, 0, 0, 0, 1, 0, 0, 0, 1, 1.35916, 0.709848, 0 )
mesh = SubResource( 2 )
material/0 = null

[node name="anim" type="AnimationPlayer" parent="mesh"]
anims/Draw = SubResource( 3 )
anims/Hide = SubResource( 4 )
